  2022-02-01 15:37:10 INFO  UserController:44 - liste des utilisateurs
  2022-02-01 15:46:32 INFO  UserController:109 - Supprimer un utilisateur
  2022-02-01 15:47:42 INFO  UserController:66 - Ajouter un utilisateur
  2022-02-01 16:31:11 INFO  UserController:65 - Ajouter un utilisateur
  2022-02-01 16:31:18 INFO  RoleController:46 - Liste des roles
  2022-02-01 16:31:28 INFO  RoleController:68 - Ajouter un role
  2022-02-01 16:31:49 INFO  RoleController:46 - Liste des roles
  2022-02-01 16:31:51 INFO  RoleController:46 - Liste des roles
  2022-02-01 23:02:46 INFO  UserController:45 - liste des utilisateurs
  2022-02-02 00:34:04 INFO  UserController:45 - liste des utilisateurs
  2022-02-02 00:34:11 INFO  UserController:45 - liste des utilisateurs
  2022-02-02 11:45:52 INFO  UserController:68 - Ajouter un utilisateur
  2022-02-02 11:53:20 INFO  UserController:68 - Ajouter un utilisateur
  2022-02-02 13:32:27 INFO  ProfileMemberController:69 - Ajouter un profil member
  2022-02-02 13:33:09 INFO  UserController:68 - Ajouter un utilisateur
  2022-02-02 13:37:22 INFO  GroupController:46 - Liste des groupes
  2022-02-02 23:06:48 INFO  ProfilController:111 - Updater un profil
  2022-02-02 23:10:02 INFO  ProfilController:111 - Updater un profil
  2022-02-03 15:41:51 INFO  UserMembershipController:42 - liste des membership
  2022-02-04 11:51:47 INFO  UserController:68 - Ajouter un utilisateur
  2022-02-04 14:35:19 INFO  UserController:134 - Updater un utilisateur
  2022-02-04 14:36:04 INFO  UserController:134 - Updater un utilisateur
  2022-02-04 14:36:50 INFO  UserController:134 - Updater un utilisateur
  2022-02-04 14:37:08 INFO  UserController:45 - liste des utilisateurs
  2022-02-04 14:37:17 INFO  UserController:134 - Updater un utilisateur
  2022-02-04 14:37:41 INFO  UserController:134 - Updater un utilisateur
  2022-02-04 14:40:07 INFO  ProfilController:111 - Updater un profil
  2022-02-04 15:20:46 INFO  UserController:68 - Ajouter un utilisateur
  2022-02-04 15:26:14 INFO  UserController:45 - liste des utilisateurs
  2022-02-04 15:29:24 INFO  UserController:68 - Ajouter un utilisateur
  2022-02-04 22:21:45 INFO  UserController:68 - Ajouter un utilisateur
  2022-02-04 22:22:22 INFO  UserController:68 - Ajouter un utilisateur
  2022-02-04 22:28:55 INFO  UserController:68 - Ajouter un utilisateur
  2022-02-04 22:43:16 INFO  UserController:45 - liste des utilisateurs
  2022-02-04 23:11:08 INFO  UserMembershipController:42 - liste des membership
  2022-02-04 23:20:03 INFO  UserController:68 - Ajouter un utilisateur
  2022-02-04 23:54:15 INFO  UserController:45 - liste des utilisateurs
  2022-02-04 23:56:47 INFO  UserController:45 - liste des utilisateurs
  2022-02-04 23:59:47 INFO  UserController:45 - liste des utilisateurs
  2022-02-05 00:00:54 INFO  UserController:45 - liste des utilisateurs
  2022-02-05 00:02:09 INFO  UserController:45 - liste des utilisateurs
  2022-02-05 00:02:35 INFO  RoleController:46 - Liste des roles
  2022-02-05 00:11:21 INFO  GroupController:46 - Liste des groupes
  2022-02-05 00:13:23 INFO  UserController:45 - liste des utilisateurs
  2022-02-05 22:52:15 INFO  UserController:90 - afficher les info d'un utilisateur
  2022-02-05 22:52:51 INFO  UserController:90 - afficher les info d'un utilisateur
  2022-02-05 22:53:32 INFO  RoleController:46 - Liste des roles
  2022-02-05 22:55:32 INFO  GroupController:46 - Liste des groupes
  2022-02-05 23:06:23 INFO  UserController:90 - afficher les info d'un utilisateur
  2022-02-05 23:09:03 INFO  UserController:90 - afficher les info d'un utilisateur
  2022-02-05 23:09:09 INFO  UserController:90 - afficher les info d'un utilisateur
  2022-02-05 23:10:25 INFO  ProfileMemberController:47 - Liste des profils members
  2022-02-05 23:13:30 INFO  ProfileMemberController:47 - Liste des profils members
  2022-02-05 23:27:09 INFO  UserController:45 - liste des utilisateurs
  2022-02-05 23:29:23 INFO  UserController:90 - afficher les info d'un utilisateur
  2022-02-05 23:29:33 INFO  UserController:90 - afficher les info d'un utilisateur
  2022-02-05 23:39:56 INFO  RoleController:46 - Liste des roles
  2022-02-05 23:40:27 INFO  UserContactInfoController:47 - liste des informations des utilisateurs
  2022-02-05 23:49:10 INFO  UserController:45 - liste des utilisateurs
  2022-02-06 00:32:08 INFO  UserController:45 - liste des utilisateurs
  2022-02-06 00:32:24 INFO  UserController:90 - afficher les info d'un utilisateur
  2022-02-06 20:21:53 INFO  UserController:90 - afficher les info d'un utilisateur
  2022-02-06 20:22:13 INFO  UserController:90 - afficher les info d'un utilisateur
  2022-02-06 20:24:09 INFO  UserController:90 - afficher les info d'un utilisateur
  2022-02-06 20:32:06 INFO  UserController:90 - afficher les info d'un utilisateur
  2022-02-06 20:36:21 INFO  UserController:90 - afficher les info d'un utilisateur
  2022-02-06 20:39:09 INFO  UserController:90 - afficher les info d'un utilisateur
  2022-02-06 20:45:31 INFO  RoleController:46 - Liste des roles
  2022-02-06 20:49:50 INFO  ProfileMemberController:47 - Liste des profils members
  2022-02-07 22:46:52 INFO  RejetController:48 - Liste des rejets
  2022-02-07 22:50:03 INFO  RejetController:48 - Liste des rejets
  2022-02-07 23:00:41 INFO  RejetController:48 - Liste des rejets
  2022-02-07 23:03:17 INFO  RejetController:49 - Liste des rejets
  2022-02-07 23:03:36 INFO  UserController:45 - liste des utilisateurs
  2022-02-07 23:19:16 INFO  UserController:45 - liste des utilisateurs
  2022-02-07 23:20:22 INFO  RejetController:49 - Liste des rejets
  2022-02-07 23:41:40 INFO  RejetController:48 - Liste des rejets
  